Intro into statistics (code) – Biostatistics in R
…
sample_size = 2
n_samples = 10000

df_trial <- tibble(
  sample_ID = rep(1:n_samples, each=sample_size),
  value = sample(x=population,
                 size=sample_size*n_samples, 
                 replace = TRUE,
                 prob=rep(1/length(population), length(population))
                 )
  )

df_trial

# A tibble: 20,000 × 2
   sample_ID value
       <int> <dbl>
 1         1  3.92
 2         1  3.15
 3         2  6.74
 4         2  8.50
 5         3  8.02
 6         3  3.33
 7         4  5.19
 8         4  6.82
 9         5  8.52
10         5  9.80
# ℹ 19,990 more rows

Standardizing each sample

df_standart = 
  df_trial |> 
  group_by(sample_ID) |> 
  summarize(m = mean(value)) |> 
  mutate(z_m = (m - mean(m))/sd(m) ) # <-- Formula! 

df_standart

# A tibble: 10,000 × 3
   sample_ID     m    z_m
       <int> <dbl>  <dbl>
 1         1  3.53 -0.729
 2         2  7.62  1.29 
 3         3  5.67  0.328
 4         4  6.01  0.493
 5         5  9.16  2.05 
 6         6  3.53 -0.732
 7         7  3.87 -0.563
 8         8  4.28 -0.361
 9         9  5.30  0.142
10        10  4.18 -0.410
# ℹ 9,990 more rows
…
