Working with Dataframes – Biostatistics in R
…
Looks like data.frame

Behave more conveniently

never changes input data types

never customizes variable names

never prints all lines

students_tibble = as_tibble(students_hours)
students_tibble

# A tibble: 2,000 × 7
   Study_Hours_Per_Day Extracurricular_Hours_Per_Day Sleep_Hours_Per_Day
                 <dbl>                         <dbl>               <dbl>
 1                 6.9                           3.8                 8.7
 2                 5.3                           3.5                 8  
 3                 5.1                           3.9                 9.2
 4                 6.5                           2.1                 7.2
 5                 8.1                           0.6                 6.5
 6                 6                             2.1                 8  
 7                 8                             0.7                 5.3
 8                 8.4                           1.8                 5.6
 9                 5.2                           3.6                 6.3
10                 7.7                           0.7                 9.8
# ℹ 1,990 more rows
# ℹ 4 more variables: Social_Hours_Per_Day <dbl>,
#   Physical_Activity_Hours_Per_Day <dbl>, GPA <dbl>, Stress_Level <fct>
…
The function after %>% gets the dataset as the first variable and allows us not to write it

Pipe just apply the function to the table, but change it. To change table you shoul do something like this: df = df %>% some_function()

Yes, you noticed some new functions like filter and select. They are more of them in dplyr

Important feature of pipe is dot . (advanced)

students_tibble %>% select(Study_Hours_Per_Day:Physical_Activity_Hours_Per_Day) %>% 
  filter(rowSums(.) > 24)

# A tibble: 205 × 5
   Study_Hours_Per_Day Extracurricular_Hours_Per_Day Sleep_Hours_Per_Day
                 <dbl>                         <dbl>               <dbl>
 1                 7.7                           0.7                 9.8
 2                 6.9                           1.1                 9.1
 3                 5                             3.3                 8.5
 4                 8.6                           2.6                 9.4
 5                 9.7                           1.3                 7.6
 6                 9.9                           1                   8.4
 7                 8.2                           0.3                 5.8
 8                 9.7                           3.8                 9.6
 9                 9.3                           1.3                 5.8
10                 9                             2.6                 8.5
# ℹ 195 more rows
# ℹ 2 more variables: Social_Hours_Per_Day <dbl>,
#   Physical_Activity_Hours_Per_Day <dbl>
…
Arranging (order)

# students_tibble[order(students_tibble$Study_Hours_Per_Day), ]
students_tibble %>% arrange(Study_Hours_Per_Day)

# A tibble: 2,000 × 7
   Study_Hours_Per_Day Extracurricular_Hours_Per_Day Sleep_Hours_Per_Day
                 <dbl>                         <dbl>               <dbl>
 1                   5                           3.3                 8.5
 2                   5                           2                   7.1
 3                   5                           0.6                 7.7
 4                   5                           1                   8.6
 5                   5                           4                   8.4
 6                   5                           1.7                 7.6
 7                   5                           1.7                 5.5
 8                   5                           3.5                 9  
 9                   5                           1.6                 6.2
10                   5                           0.2                 9.9
# ℹ 1,990 more rows
# ℹ 4 more variables: Social_Hours_Per_Day <dbl>,
#   Physical_Activity_Hours_Per_Day <dbl>, GPA <dbl>, Stress_Level <fct>

# students_tibble[order(students_tibble$Study_Hours_Per_Day, decreasing = T),]
students_tibble %>% arrange(desc(Study_Hours_Per_Day))

# A tibble: 2,000 × 7
   Study_Hours_Per_Day Extracurricular_Hours_Per_Day Sleep_Hours_Per_Day
                 <dbl>                         <dbl>               <dbl>
 1                  10                           2.2                 8.8
 2                  10                           0.2                 9.9
 3                  10                           2.6                 7.8
 4                  10                           3.7                 7.7
 5                  10                           1.5                 7.2
 6                  10                           3.7                 8.2
 7                  10                           0.5                 6.4
 8                  10                           3.5                 8.1
 9                  10                           2.2                 9.8
10                  10                           0.2                 8.8
# ℹ 1,990 more rows
# ℹ 4 more variables: Social_Hours_Per_Day <dbl>,
#   Physical_Activity_Hours_Per_Day <dbl>, GPA <dbl>, Stress_Level <fct>

Select

Select columns by names

# students_tibble[, c("Extracurricular_Hours_Per_Day", "Study_Hours_Per_Day")]
students_tibble %>% select(Extracurricular_Hours_Per_Day, Study_Hours_Per_Day)

# A tibble: 2,000 × 2
   Extracurricular_Hours_Per_Day Study_Hours_Per_Day
                           <dbl>               <dbl>
 1                           3.8                 6.9
 2                           3.5                 5.3
 3                           3.9                 5.1
 4                           2.1                 6.5
 5                           0.6                 8.1
 6                           2.1                 6  
 7                           0.7                 8  
 8                           1.8                 8.4
 9                           3.6                 5.2
10                           0.7                 7.7
# ℹ 1,990 more rows

students_tibble %>%  select(-(Study_Hours_Per_Day:Social_Hours_Per_Day))

# A tibble: 2,000 × 3
   Physical_Activity_Hours_Per_Day   GPA Stress_Level
                             <dbl> <dbl> <fct>       
 1                             1.8  2.99 Moderate    
 2                             3    2.75 Low         
 3                             4.6  2.67 Low         
 4                             6.5  2.88 Moderate    
 5                             6.6  3.51 High        
 6                             7.6  2.85 Moderate    
 7                             4.3  3.08 High        
 8                             5.2  3.2  High        
 9                             4.9  2.82 Low         
10                             1.3  2.76 Moderate    
# ℹ 1,990 more rows

Minuses are useful for easy column deletion. And also you can use col1:col5 to select columns from the range.

select() is powerful function and it is possible to combine it with other functions.

# contains
students_tibble %>% select(contains('Hours'))

# A tibble: 2,000 × 5
   Study_Hours_Per_Day Extracurricular_Hours_Per_Day Sleep_Hours_Per_Day
                 <dbl>                         <dbl>               <dbl>
 1                 6.9                           3.8                 8.7
 2                 5.3                           3.5                 8  
 3                 5.1                           3.9                 9.2
 4                 6.5                           2.1                 7.2
 5                 8.1                           0.6                 6.5
 6                 6                             2.1                 8  
 7                 8                             0.7                 5.3
 8                 8.4                           1.8                 5.6
 9                 5.2                           3.6                 6.3
10                 7.7                           0.7                 9.8
# ℹ 1,990 more rows
# ℹ 2 more variables: Social_Hours_Per_Day <dbl>,
#   Physical_Activity_Hours_Per_Day <dbl>

#endswith (also there is starts_with() ficntion)
students_tibble %>% select(ends_with('Per_Day'))

# A tibble: 2,000 × 5
   Study_Hours_Per_Day Extracurricular_Hours_Per_Day Sleep_Hours_Per_Day
                 <dbl>                         <dbl>               <dbl>
 1                 6.9                           3.8                 8.7
 2                 5.3                           3.5                 8  
 3                 5.1                           3.9                 9.2
 4                 6.5                           2.1                 7.2
 5                 8.1                           0.6                 6.5
 6                 6                             2.1                 8  
 7                 8                             0.7                 5.3
 8                 8.4                           1.8                 5.6
 9                 5.2                           3.6                 6.3
10                 7.7                           0.7                 9.8
# ℹ 1,990 more rows
# ℹ 2 more variables: Social_Hours_Per_Day <dbl>,
#   Physical_Activity_Hours_Per_Day <dbl>
…
Extract column as vector

# students_tibble$Extracurricular_Hours_Per_Day
students_tibble %>% pull(Extracurricular_Hours_Per_Day) %>% mean(na.rm = T)

[1] 1.991283

Filtering

# students_tibble[students_tibble$Extracurricular_Hours_Per_Day > 2 & students_tibble$Study_Hours_Per_Day > 3,]

students_tibble %>% filter(Extracurricular_Hours_Per_Day > 2, 
                           Extracurricular_Hours_Per_Day < 3)

# A tibble: 445 × 7
   Study_Hours_Per_Day Extracurricular_Hours_Per_Day Sleep_Hours_Per_Day
                 <dbl>                         <dbl>               <dbl>
 1                 6.5                           2.1                 7.2
 2                 6                             2.1                 8  
 3                 6.4                           2.2                 5.7
 4                 8.6                           2.6                 9.4
 5                 8.8                           2.2                 8.9
 6                 6.2                           2.9                 6.8
 7                 5.2                           2.4                 8.4
 8                 9.1                           2.2                 7.6
 9                 9.5                           2.5                 9  
10                 9.7                           2.8                 7.9
# ℹ 435 more rows
# ℹ 4 more variables: Social_Hours_Per_Day <dbl>,
#   Physical_Activity_Hours_Per_Day <dbl>, GPA <dbl>, Stress_Level <fct>

students_tibble %>% filter(between(Extracurricular_Hours_Per_Day, 2, 3))

# A tibble: 554 × 7
   Study_Hours_Per_Day Extracurricular_Hours_Per_Day Sleep_Hours_Per_Day
                 <dbl>                         <dbl>               <dbl>
 1                 6.5                           2.1                 7.2
 2                 6                             2.1                 8  
 3                 6.4                           2.2                 5.7
 4                 8.6                           2.6                 9.4
 5                 8.8                           2.2                 8.9
 6                 6.6                           2                   9.5
 7                 7.1                           3                   6.1
 8                 5                             2                   7.1
 9                 6.2                           2.9                 6.8
10                 5.2                           2.4                 8.4
# ℹ 544 more rows
# ℹ 4 more variables: Social_Hours_Per_Day <dbl>,
#   Physical_Activity_Hours_Per_Day <dbl>, GPA <dbl>, Stress_Level <fct>

Slice

# students_tibble[30:50,]
students_tibble %>% slice(30:50)

# A tibble: 21 × 7
   Study_Hours_Per_Day Extracurricular_Hours_Per_Day Sleep_Hours_Per_Day
                 <dbl>                         <dbl>               <dbl>
 1                 9.9                           1                   8.4
 2                 6.2                           2.9                 6.8
 3                 5.5                           3.3                 6.6
 4                 5.2                           2.4                 8.4
 5                 8.2                           0.7                 8.5
 6                 9.7                           0.6                 6.7
 7                 9.1                           2.2                 7.6
 8                 5.5                           3.6                 9.5
 9                 8.6                           3.6                 9.4
10                 8.2                           0.3                 5.8
# ℹ 11 more rows
# ℹ 4 more variables: Social_Hours_Per_Day <dbl>,
#   Physical_Activity_Hours_Per_Day <dbl>, GPA <dbl>, Stress_Level <fct>
…
Rename column

# students_tibble$SHPD = students_tibble$Study_Hours_Per_Day 
# students_tibble$Study_Hours_Per_Day = NULL

students_tibble_2=students_tibble %>%  rename(SHPD = Study_Hours_Per_Day)
students_tibble_2

# A tibble: 2,000 × 7
    SHPD Extracurricular_Hours_Per_Day Sleep_Hours_Per_Day Social_Hours_Per_Day
   <dbl>                         <dbl>               <dbl>                <dbl>
 1   6.9                           3.8                 8.7                  2.8
 2   5.3                           3.5                 8                    4.2
 3   5.1                           3.9                 9.2                  1.2
 4   6.5                           2.1                 7.2                  1.7
 5   8.1                           0.6                 6.5                  2.2
 6   6                             2.1                 8                    0.3
 7   8                             0.7                 5.3                  5.7
 8   8.4                           1.8                 5.6                  3  
 9   5.2                           3.6                 6.3                  4  
10   7.7                           0.7                 9.8                  4.5
# ℹ 1,990 more rows
# ℹ 3 more variables: Physical_Activity_Hours_Per_Day <dbl>, GPA <dbl>,
#   Stress_Level <fct>

Advanced rename column

students_tibble %>%  rename_with(~ gsub("_Hours_Per_Day", "_h", .x))

# A tibble: 2,000 × 7
   Study_h Extracurricular_h Sleep_h Social_h Physical_Activity_h   GPA
     <dbl>             <dbl>   <dbl>    <dbl>               <dbl> <dbl>
 1     6.9               3.8     8.7      2.8                 1.8  2.99
 2     5.3               3.5     8        4.2                 3    2.75
 3     5.1               3.9     9.2      1.2                 4.6  2.67
 4     6.5               2.1     7.2      1.7                 6.5  2.88
 5     8.1               0.6     6.5      2.2                 6.6  3.51
 6     6                 2.1     8        0.3                 7.6  2.85
 7     8                 0.7     5.3      5.7                 4.3  3.08
 8     8.4               1.8     5.6      3                   5.2  3.2 
 9     5.2               3.6     6.3      4                   4.9  2.82
10     7.7               0.7     9.8      4.5                 1.3  2.76
# ℹ 1,990 more rows
# ℹ 1 more variable: Stress_Level <fct>

Advanced rename values in column

For character columns (output is character)

students_tibble %>% 
  mutate(Stress_Level = case_when(
    Stress_Level == "High" ~ 'high',
    Stress_Level == "Moderate" ~ 'medium',
    Stress_Level == "Low" ~ 'low',
    TRUE ~ as.character(Stress_Level))) #remaining characters are not modified

# A tibble: 2,000 × 7
   Study_Hours_Per_Day Extracurricular_Hours_Per_Day Sleep_Hours_Per_Day
                 <dbl>                         <dbl>               <dbl>
 1                 6.9                           3.8                 8.7
 2                 5.3                           3.5                 8  
 3                 5.1                           3.9                 9.2
 4                 6.5                           2.1                 7.2
 5                 8.1                           0.6                 6.5
 6                 6                             2.1                 8  
 7                 8                             0.7                 5.3
 8                 8.4                           1.8                 5.6
 9                 5.2                           3.6                 6.3
10                 7.7                           0.7                 9.8
# ℹ 1,990 more rows
# ℹ 4 more variables: Social_Hours_Per_Day <dbl>,
#   Physical_Activity_Hours_Per_Day <dbl>, GPA <dbl>, Stress_Level <chr>

For factor columns

students_tibble %>% 
  mutate(Stress_Level = recode(Stress_Level,
                               "High" = 'high',
                               "Moderate" = 'medium',
                               "Low" = 'low'))

# A tibble: 2,000 × 7
   Study_Hours_Per_Day Extracurricular_Hours_Per_Day Sleep_Hours_Per_Day
                 <dbl>                         <dbl>               <dbl>
 1                 6.9                           3.8                 8.7
 2                 5.3                           3.5                 8  
 3                 5.1                           3.9                 9.2
 4                 6.5                           2.1                 7.2
 5                 8.1                           0.6                 6.5
 6                 6                             2.1                 8  
 7                 8                             0.7                 5.3
 8                 8.4                           1.8                 5.6
 9                 5.2                           3.6                 6.3
10                 7.7                           0.7                 9.8
# ℹ 1,990 more rows
# ℹ 4 more variables: Social_Hours_Per_Day <dbl>,
#   Physical_Activity_Hours_Per_Day <dbl>, GPA <dbl>, Stress_Level <fct>

Mutate

Changing columns and creation new ones

# students_tibble$Stress_Level = as.factor(students_tibble$Stress_Level)
students_tibble %>% mutate(Stress_Level = as.factor(Stress_Level), 
                           GPA = round(GPA), 
                           GPA = GPA+1
                           # .keep='used'
                           )

# A tibble: 2,000 × 7
   Study_Hours_Per_Day Extracurricular_Hours_Per_Day Sleep_Hours_Per_Day
                 <dbl>                         <dbl>               <dbl>
 1                 6.9                           3.8                 8.7
 2                 5.3                           3.5                 8  
 3                 5.1                           3.9                 9.2
 4                 6.5                           2.1                 7.2
 5                 8.1                           0.6                 6.5
 6                 6                             2.1                 8  
 7                 8                             0.7                 5.3
 8                 8.4                           1.8                 5.6
 9                 5.2                           3.6                 6.3
10                 7.7                           0.7                 9.8
# ℹ 1,990 more rows
# ℹ 4 more variables: Social_Hours_Per_Day <dbl>,
#   Physical_Activity_Hours_Per_Day <dbl>, GPA <dbl>, Stress_Level <fct>
…
