CLT – Biostatistics in R
…
sample_size = 100 
n_samples = 10000

df_trial <- tibble(
  sample_ID = rep(1:n_samples, each=sample_size),
  value = sample(x=population,
                 size=sample_size*n_samples, 
                 replace = TRUE,
                 prob=rep(1/length(population), length(population))
                 )
  )

df_trial

# A tibble: 1,000,000 × 2
   sample_ID value
       <int> <dbl>
 1         1 1.34 
 2         1 7.57 
 3         1 0.811
 4         1 9.21 
 5         1 2.70 
 6         1 6.74 
 7         1 8.73 
 8         1 6.85 
 9         1 8.27 
10         1 6.41 
# ℹ 999,990 more rows

Standardizing each sample

df_standart = 
  df_trial |> 
  group_by(sample_ID) |> 
  summarize(m = mean(value)) |> 
  mutate(z_m = (m - mean(m))/sd(m) ) # <-- Formula! 

df_standart

# A tibble: 10,000 × 3
   sample_ID     m     z_m
       <int> <dbl>   <dbl>
 1         1  4.97 -0.180 
 2         2  4.85 -0.578 
 3         3  4.69 -1.13  
 4         4  5.00 -0.0803
 5         5  5.09  0.227 
 6         6  5.34  1.08  
 7         7  5.23  0.721 
 8         8  4.84 -0.615 
 9         9  4.78 -0.836 
10        10  4.72 -1.03  
# ℹ 9,990 more rows
…
