Intro into statistics (code) – Biostatistics in R
…
sample_size = 100 
n_samples = 10000

df_trial <- tibble(
  sample_ID = rep(1:n_samples, each=sample_size),
  value = sample(x=population,
                 size=sample_size*n_samples, 
                 replace = TRUE,
                 prob=rep(1/length(population), length(population))
                 )
  )

df_trial

# A tibble: 1,000,000 × 2
   sample_ID  value
       <int>  <dbl>
 1         1 9.60  
 2         1 2.34  
 3         1 7.63  
 4         1 7.35  
 5         1 1.40  
 6         1 0.0701
 7         1 9.89  
 8         1 3.49  
 9         1 3.81  
10         1 9.03  
# ℹ 999,990 more rows

Standardizing each sample

df_standart = 
  df_trial |> 
  group_by(sample_ID) |> 
  summarize(m = mean(value)) |> 
  mutate(z_m = (m - mean(m))/sd(m) ) # <-- Formula! 

df_standart

# A tibble: 10,000 × 3
   sample_ID     m    z_m
       <int> <dbl>  <dbl>
 1         1  5.06  0.220
 2         2  4.50 -1.72 
 3         3  4.93 -0.239
 4         4  4.72 -0.957
 5         5  4.86 -0.493
 6         6  5.19  0.652
 7         7  4.64 -1.25 
 8         8  4.25 -2.59 
 9         9  5.23  0.810
10        10  4.90 -0.348
# ℹ 9,990 more rows
…
